모두의 데이터 스터디
…
퀴즈에 사용할 데이터셋 ’fueleconomy::vehicles’에 대해

vehicles 데이터셋은 미국 환경 보호국(EPA)에서
수집한 실제 자동차들의 정보입니다.

http://www.fueleconomy.gov/feg/download.shtml

데이터셋은 아래 코드를 실행해 CRAN에서 다운로드 받을 수 있습니다.

install.packages('fueleconomy') #데이터셋 다운로드
library(fueleconomy)            #데이터셋 라이브러리 로드

vehicles                        #데이터셋 실행

## # A tibble: 33,442 × 12
##       id make  model        year class trans drive   cyl displ fuel    hwy   cty
##    <dbl> <chr> <chr>       <dbl> <chr> <chr> <chr> <dbl> <dbl> <chr> <dbl> <dbl>
##  1 13309 Acura 2.2CL/3.0CL  1997 Subc… Auto… Fron…     4   2.2 Regu…    26    20
##  2 13310 Acura 2.2CL/3.0CL  1997 Subc… Manu… Fron…     4   2.2 Regu…    28    22
##  3 13311 Acura 2.2CL/3.0CL  1997 Subc… Auto… Fron…     6   3   Regu…    26    18
##  4 14038 Acura 2.3CL/3.0CL  1998 Subc… Auto… Fron…     4   2.3 Regu…    27    19
##  5 14039 Acura 2.3CL/3.0CL  1998 Subc… Manu… Fron…     4   2.3 Regu…    29    21
##  6 14040 Acura 2.3CL/3.0CL  1998 Subc… Auto… Fron…     6   3   Regu…    26    17
##  7 14834 Acura 2.3CL/3.0CL  1999 Subc… Auto… Fron…     4   2.3 Regu…    27    20
##  8 14835 Acura 2.3CL/3.0CL  1999 Subc… Manu… Fron…     4   2.3 Regu…    29    21
##  9 14836 Acura 2.3CL/3.0CL  1999 Subc… Auto… Fron…     6   3   Regu…    26    17
## 10 11789 Acura 2.5TL        1995 Comp… Auto… Fron…     5   2.5 Prem…    23    18
## # ℹ 33,432 more rows
…
2. group_by(), reframe()

제조사별 평균 고속도로 연비를 계산하시오 
 - group_by(),
reframe(), mean()

## # A tibble: 128 × 2
##    make            avg_hwy
##    <chr>             <dbl>
##  1 Tesla              93.3
##  2 CODA Automotive    68  
##  3 BYD                64.7
##  4 Azure Dynamics     62  
##  5 smart              54.3
##  6 Fiat               44  
##  7 MINI               33.3
##  8 Daihatsu           32.5
##  9 Scion              32.0
## 10 Red Shift Ltd.     31  
## # ℹ 118 more rows
…
10. NA 조회

trans의 종류는 총 몇개인가?
 - 힌트 없음

## # A tibble: 47 × 2
##    trans                                n
##    <chr>                            <int>
##  1 Automatic 4-spd                  10771
##  2 Manual 5-spd                      7858
##  3 Automatic 3-spd                   2720
##  4 Automatic 5-spd                   2158
##  5 Manual 6-spd                      2067
##  6 Automatic (S6)                    1946
##  7 Manual 4-spd                      1368
##  8 Automatic 6-spd                   1135
##  9 Automatic (S5)                     816
## 10 Automatic (variable gear ratios)   554
## # ℹ 37 more rows
…
